<svg width="73" height="71" viewBox="0 0 73 71" fill="none" xmlns="http://www.w3.org/2000/svg">
<path d="M1.69805 70.0521C1.39999 70.0537 1.10707 69.9737 0.850424 69.8206C0.593497 69.6689 0.379604 69.4528 0.229366 69.1933C0.075578 68.9301 -0.00371441 68.6293 0.000133687 68.3237V63.4078C-0.00246978 63.1041 0.0767692 62.8053 0.229366 62.5436C0.380686 62.287 0.594487 62.0739 0.850424 61.9244C1.1084 61.776 1.40123 61.7007 1.69805 61.7063H6.55457C6.85537 61.703 7.15132 61.7831 7.41019 61.9378C7.66438 62.0896 7.87768 62.3023 8.03125 62.5571C8.1866 62.8179 8.26776 63.1169 8.26581 63.4212V64.2101H6.46394V63.5155H1.78068V68.2457H6.46394V66.9938H4.67273V65.1846H8.26315V68.3372C8.26439 68.6398 8.18324 68.9369 8.02858 69.196C7.87605 69.4537 7.66267 69.6692 7.40753 69.8233C7.14865 69.9781 6.85271 70.0581 6.5519 70.0548L1.69805 70.0521Z" fill="#729AA8"/>
<path d="M10.2409 70.0521V61.7063H17.8749V63.5155H12.0428V64.9746H16.7367V66.7838H12.0428V68.2457H17.8749V70.0521H10.2409Z" fill="#729AA8"/>
<path d="M19.7008 70.0521V61.7063H21.5373L26.1619 67.2711V61.7063H27.9664V70.0521H26.1219L21.4786 64.4524V70.0521H19.7008Z" fill="#729AA8"/>
<path d="M31.6155 70.0521C31.3166 70.0537 31.0228 69.9737 30.7652 69.8206C30.5091 69.6687 30.2961 69.4526 30.1468 69.1933C29.9938 68.9337 29.9144 68.6366 29.9176 68.3345V63.4078C29.9137 63.1039 29.9931 62.8048 30.1468 62.5436C30.2971 62.2872 30.51 62.074 30.7652 61.9244C31.0228 61.7713 31.3166 61.6913 31.6155 61.6929H36.4827C36.78 61.6907 37.0722 61.7708 37.3276 61.9244C37.581 62.0763 37.7935 62.289 37.946 62.5436C38.1035 62.8036 38.1857 63.103 38.1833 63.4078V68.3237C38.1855 68.6268 38.1033 68.9244 37.946 69.1826C37.7915 69.4414 37.5752 69.6571 37.317 69.8098C37.0615 69.9635 36.7693 70.0435 36.472 70.0414L31.6155 70.0521ZM36.3787 68.243V63.502H31.6955V68.2322L36.3787 68.243Z" fill="#729AA8"/>
<path d="M40.1344 70.0521V61.7063H41.9709L44.7803 65.0662L47.5604 61.7063H49.4103V70.0521H47.6191V64.4524L44.7803 67.8715L41.9203 64.4524V70.0521H40.1344Z" fill="#729AA8"/>
<path d="M51.1775 70.0521V61.7063H52.9341V70.0521H51.1775Z" fill="#729AA8"/>
<path d="M56.3192 70.0521C56.0193 70.0551 55.7243 69.975 55.4663 69.8206C55.2123 69.6692 55.0005 69.4552 54.8505 69.1987C54.6973 68.9372 54.618 68.6383 54.6213 68.3345V63.4078C54.6187 63.1041 54.698 62.8053 54.8505 62.5436C55.0007 62.2879 55.2125 62.0749 55.4663 61.9244C55.7243 61.77 56.0193 61.6899 56.3192 61.6929H62.863V63.502H56.775C56.6785 63.4981 56.5838 63.5297 56.5085 63.5909C56.4738 63.6302 56.4473 63.6763 56.4308 63.7263C56.4143 63.7762 56.4081 63.8291 56.4125 63.8816V67.8472C56.4065 67.8989 56.4122 67.9512 56.4291 68.0004C56.446 68.0495 56.4737 68.0941 56.5101 68.1309C56.5466 68.1677 56.5907 68.1957 56.6394 68.2128C56.688 68.2298 56.7399 68.2356 56.791 68.2295H62.8737V70.0521H56.3192Z" fill="#729AA8"/>
<path d="M66.4241 70.0521C66.1252 70.0541 65.8313 69.974 65.5738 69.8206C65.3169 69.6689 65.103 69.4528 64.9527 69.1933C64.8008 68.9333 64.7216 68.6365 64.7235 68.3345V67.5484H66.5041V68.2322H71.1873V66.7703H66.4241C66.1254 66.7781 65.8303 66.7026 65.5711 66.5523C65.3152 66.4028 65.1014 66.1896 64.9501 65.9331C64.7969 65.6716 64.7176 65.3727 64.7208 65.0689V63.4212C64.7182 63.1175 64.7975 62.8188 64.9501 62.5571C65.1014 62.3005 65.3152 62.0873 65.5711 61.9378C65.8286 61.7844 66.1225 61.7044 66.4214 61.7063H71.2886C71.585 61.7045 71.8763 61.7846 72.1309 61.9378C72.3851 62.0896 72.5984 62.3023 72.752 62.5571C72.9086 62.8173 72.9899 63.1167 72.9865 63.4212V64.1993H71.1847V63.5155H66.5041V64.9746H71.3019C71.5988 64.9723 71.8904 65.0534 72.1442 65.2089C72.3984 65.3607 72.6117 65.5733 72.7653 65.8281C72.9226 66.088 73.0039 66.3876 72.9999 66.6923V68.3372C73.0029 68.64 72.9216 68.9376 72.7653 69.196C72.6128 69.4537 72.3994 69.6692 72.1442 69.8233C71.8896 69.9766 71.5984 70.0566 71.3019 70.0548L66.4241 70.0521Z" fill="#729AA8"/>
<path d="M0.981033 55.5923V49.2899H6.18407C6.37119 49.2856 6.55579 49.3341 6.71716 49.4299C6.87572 49.5214 7.00723 49.6539 7.09813 49.8139C7.18903 49.9739 7.23603 50.1554 7.23427 50.3398V54.5424C7.23792 54.7313 7.18996 54.9176 7.09566 55.0808C7.0037 55.2395 6.87207 55.3711 6.71396 55.4622C6.55585 55.5534 6.3768 55.6011 6.19473 55.6004L0.981033 55.5923ZM2.02057 54.8843H6.18407C6.2284 54.8843 6.27229 54.8754 6.31321 54.8582C6.35413 54.841 6.39127 54.8158 6.4225 54.784C6.45372 54.7522 6.4784 54.7145 6.49512 54.673C6.51184 54.6315 6.52027 54.5871 6.51992 54.5424V50.3398C6.52082 50.2948 6.51253 50.25 6.49556 50.2083C6.47859 50.1667 6.45331 50.1289 6.42129 50.0975C6.35841 50.0339 6.27309 49.9981 6.18407 49.9979H2.02057C1.93155 49.9981 1.84623 50.0339 1.78335 50.0975C1.75097 50.1288 1.72528 50.1664 1.70786 50.2081C1.69044 50.2498 1.68166 50.2946 1.68206 50.3398V54.5424C1.68166 54.5876 1.69044 54.6324 1.70786 54.6741C1.72528 54.7158 1.75097 54.7534 1.78335 54.7847C1.81412 54.8167 1.85102 54.842 1.89181 54.8591C1.93259 54.8763 1.97641 54.8848 2.02057 54.8843Z" fill="#729AA8"/>
<path d="M13.8287 55.5923V49.2899H14.5404V55.5923H13.8287Z" fill="#729AA8"/>
<path d="M22.1877 55.5923C22.0006 55.596 21.8161 55.5476 21.6546 55.4523C21.4968 55.3625 21.3661 55.2314 21.2761 55.0727C21.183 54.909 21.1351 54.7231 21.1375 54.5343V50.3398C21.1351 50.1511 21.183 49.9651 21.2761 49.8014C21.3683 49.6423 21.5003 49.5105 21.6589 49.4193C21.8175 49.3281 21.9971 49.2807 22.1797 49.2818H26.3485C26.4853 49.2807 26.621 49.3072 26.7476 49.3595C26.8742 49.4119 26.9892 49.4892 27.0859 49.5869C27.1827 49.6847 27.2592 49.8008 27.3111 49.9287C27.3629 50.0566 27.3891 50.1936 27.388 50.3318V50.5848H26.687V50.3318C26.6863 50.2413 26.6504 50.1547 26.5871 50.0908C26.5237 50.0268 26.438 49.9906 26.3485 49.9899H22.1877C22.1431 49.9896 22.099 49.9982 22.0578 50.0153C22.0166 50.0324 21.9792 50.0576 21.9478 50.0895C21.9157 50.1209 21.8905 50.1586 21.8735 50.2003C21.8565 50.2419 21.8482 50.2867 21.8491 50.3318V54.5343C21.8488 54.5793 21.8573 54.6239 21.8742 54.6656C21.8911 54.7072 21.916 54.745 21.9475 54.7769C21.979 54.8087 22.0165 54.8339 22.0577 54.8509C22.0989 54.868 22.1431 54.8766 22.1877 54.8762H26.3485C26.3927 54.8772 26.4367 54.8689 26.4775 54.8517C26.5184 54.8346 26.5552 54.809 26.5857 54.7766C26.6181 54.7453 26.6438 54.7077 26.6612 54.666C26.6786 54.6244 26.6874 54.5795 26.687 54.5343V52.9836H25.1437V52.2675H27.388V54.5424C27.3917 54.7313 27.3437 54.9176 27.2494 55.0808C27.1605 55.2394 27.0306 55.3706 26.8736 55.4604C26.712 55.5557 26.5275 55.6041 26.3405 55.6004L22.1877 55.5923Z" fill="#729AA8"/>
<path d="M33.9771 55.5923V49.2899H34.6888V55.5923H33.9771Z" fill="#729AA8"/>
<path d="M43.7568 55.5923V49.9979H40.982V49.2899H47.2246V49.9979H44.4605V55.5923H43.7568Z" fill="#729AA8"/>
<path d="M53.4405 50.3398C53.4398 50.2018 53.4662 50.0649 53.5182 49.9372C53.5702 49.8095 53.6467 49.6935 53.7434 49.5958C53.8401 49.4982 53.955 49.4209 54.0814 49.3684C54.2078 49.3158 54.3433 49.2892 54.48 49.2899H58.6409C58.828 49.2856 59.0126 49.3341 59.174 49.4299C59.3325 49.5214 59.464 49.6539 59.5549 49.8139C59.6458 49.9739 59.6928 50.1554 59.6911 50.3398V55.5923H58.9901V53.2905H54.1442V55.5923H53.4405V50.3398ZM58.9821 52.5824V50.3398C58.9825 50.2946 58.9737 50.2498 58.9562 50.2081C58.9388 50.1664 58.9131 50.1288 58.8808 50.0975C58.8179 50.0339 58.7326 49.9981 58.6435 49.9979H54.48C54.391 49.9981 54.3057 50.0339 54.2428 50.0975C54.2108 50.1289 54.1855 50.1667 54.1686 50.2083C54.1516 50.25 54.1433 50.2948 54.1442 50.3398V52.5824H58.9821Z" fill="#729AA8"/>
<path d="M66.2295 55.5923V49.2791H66.9305V54.8843H72.4721V55.5923H66.2295Z" fill="#729AA8"/>
<path d="M46.9474 0.0549316C42.6963 0.0548976 38.6185 1.7561 35.6066 4.7861C32.5946 7.81609 30.8941 11.928 30.8771 16.2216C30.9038 19.9045 28.6408 23.2402 24.7465 24.5674C24.2688 24.7281 23.768 24.8081 23.2645 24.8043H14.8176C13.8156 24.8054 12.8235 25.0058 11.8982 25.3942C10.9729 25.7826 10.1324 26.3512 9.42472 27.0678C8.71705 27.7843 8.15607 28.6346 7.77382 29.5701C7.39157 30.5057 7.19555 31.5081 7.19695 32.5202H22.4302C26.6789 32.5202 30.7548 30.8209 33.7663 27.7938C36.7779 24.7667 38.48 20.6582 38.5004 16.367C38.4738 12.684 41.0007 7.77347 48.9492 7.77347H54.5467C55.5507 7.77524 56.5452 7.57681 57.4732 7.18954C58.4012 6.80228 59.2443 6.2338 59.9543 5.51672C60.6642 4.79963 61.2271 3.94804 61.6105 3.01078C61.9939 2.07353 62.1904 1.06904 62.1886 0.0549316H46.9474Z" fill="#729AA8"/>
<path d="M62.6391 33.7882H47.6697C38.5697 33.7882 31.0451 26.4331 30.8958 17.3954V17.0481C30.8585 12.6248 27.1881 9.02804 22.6888 9.02804H16.8753V8.13153H22.6888C27.6626 8.13153 31.7381 12.1268 31.7727 17.0346V17.3792C31.914 25.9324 39.0442 32.8917 47.6671 32.8917H61.7622V18.2461H59.4405V17.355H62.6391V33.7882Z" fill="#729AA8"/>
<path d="M52.6435 26.4385L47.6057 26.3981C42.6319 26.3981 38.5564 22.4056 38.5218 17.495V17.1396C38.3832 8.58651 31.2476 1.62448 22.6248 1.62448H8.49771V15.7855H7.6181V0.736058H22.6248C31.7248 0.736058 39.2521 8.08846 39.4014 17.1289V17.4762C39.4494 21.8968 43.1144 25.4962 47.6057 25.4962L52.6435 25.5285V26.4385Z" fill="#729AA8"/>
<path d="M8.12188 18.4696C7.84669 18.4696 7.57768 18.3872 7.34886 18.2327C7.12005 18.0783 6.94171 17.8588 6.8364 17.602C6.73109 17.3453 6.70354 17.0627 6.75723 16.7901C6.81091 16.5175 6.94343 16.2671 7.13802 16.0705C7.33261 15.874 7.58053 15.7402 7.85043 15.6859C8.12033 15.6317 8.40009 15.6595 8.65434 15.7659C8.90858 15.8723 9.12588 16.0524 9.27877 16.2835C9.43166 16.5146 9.51326 16.7863 9.51326 17.0643C9.51326 17.437 9.36667 17.7944 9.10573 18.058C8.8448 18.3215 8.49089 18.4696 8.12188 18.4696ZM8.12188 16.55C8.02118 16.55 7.92275 16.5802 7.83903 16.6367C7.75531 16.6932 7.69005 16.7735 7.65152 16.8675C7.61299 16.9614 7.60291 17.0648 7.62255 17.1646C7.64219 17.2643 7.69068 17.3559 7.76188 17.4279C7.83308 17.4998 7.9238 17.5487 8.02255 17.5686C8.12131 17.5884 8.22368 17.5782 8.3167 17.5393C8.40973 17.5004 8.48924 17.4345 8.54518 17.3499C8.60112 17.2654 8.63098 17.166 8.63098 17.0643C8.63098 16.9279 8.57735 16.7971 8.48187 16.7007C8.38639 16.6042 8.2569 16.55 8.12188 16.55Z" fill="#729AA8"/>
<path d="M11.9655 14.3478C11.6902 14.3484 11.4209 14.2664 11.1918 14.1123C10.9626 13.9582 10.7839 13.7389 10.6781 13.4822C10.5724 13.2254 10.5445 12.9428 10.5979 12.67C10.6513 12.3972 10.7836 12.1465 10.978 11.9497C11.1725 11.7529 11.4204 11.6188 11.6904 11.5644C11.9604 11.5099 12.2403 11.5376 12.4947 11.6439C12.7491 11.7502 12.9665 11.9303 13.1196 12.1615C13.2726 12.3926 13.3542 12.6644 13.3542 12.9425C13.3542 13.3147 13.208 13.6718 12.9476 13.9353C12.6873 14.1987 12.3341 14.3471 11.9655 14.3478ZM11.9655 12.4283C11.8648 12.4283 11.7664 12.4584 11.6827 12.5149C11.5989 12.5714 11.5337 12.6518 11.4952 12.7457C11.4566 12.8397 11.4465 12.9431 11.4662 13.0428C11.4858 13.1426 11.5343 13.2342 11.6055 13.3061C11.6767 13.378 11.7674 13.427 11.8662 13.4468C11.9649 13.4667 12.0673 13.4565 12.1603 13.4176C12.2534 13.3786 12.3329 13.3127 12.3888 13.2282C12.4448 13.1436 12.4746 13.0442 12.4746 12.9425C12.4712 12.8082 12.4161 12.6806 12.321 12.5866C12.226 12.4926 12.0985 12.4397 11.9655 12.4391V12.4283Z" fill="#729AA8"/>
<path d="M15.6332 10.0591C15.3574 10.0591 15.0877 9.97628 14.8586 9.82114C14.6294 9.66599 14.4511 9.44555 14.3463 9.18782C14.2415 8.93008 14.2149 8.6467 14.2699 8.37366C14.3249 8.10062 14.459 7.85025 14.6552 7.65437C14.8514 7.45849 15.1008 7.32594 15.3717 7.27355C15.6427 7.22117 15.9229 7.25131 16.1769 7.36016C16.4308 7.46901 16.647 7.65164 16.7979 7.88486C16.9489 8.11808 17.0278 8.39136 17.0246 8.66997C17.0204 9.03988 16.8719 9.3932 16.6115 9.65326C16.351 9.91333 15.9995 10.0592 15.6332 10.0591ZM15.6332 8.13961C15.5325 8.13911 15.4338 8.16867 15.3496 8.22457C15.2654 8.28047 15.1994 8.36023 15.1599 8.45385C15.1204 8.54747 15.1092 8.65078 15.1276 8.75084C15.1459 8.8509 15.1932 8.94325 15.2633 9.01632C15.3334 9.08938 15.4234 9.13991 15.5218 9.16157C15.6203 9.18322 15.7229 9.17505 15.8167 9.13806C15.9106 9.10108 15.9916 9.03693 16.0495 8.95366C16.1074 8.87039 16.1397 8.7717 16.1423 8.66997C16.1452 8.60053 16.1342 8.53121 16.1099 8.46617C16.0856 8.40113 16.0486 8.3417 16.0011 8.29143C15.9536 8.24117 15.8965 8.2011 15.8333 8.17362C15.7701 8.14615 15.702 8.13183 15.6332 8.13153V8.13961Z" fill="#729AA8"/>
<path d="M53.731 27.3108C53.4561 27.3108 53.1873 27.2285 52.9586 27.0743C52.7299 26.9201 52.5516 26.7009 52.4461 26.4445C52.3406 26.188 52.3128 25.9057 52.366 25.6332C52.4193 25.3608 52.5513 25.1104 52.7453 24.9136C52.9394 24.7169 53.1868 24.5826 53.4563 24.5278C53.7259 24.4729 54.0055 24.5 54.2598 24.6055C54.5142 24.7111 54.7318 24.8904 54.8854 25.1208C55.0389 25.3512 55.1214 25.6223 55.1224 25.9001C55.1231 26.0851 55.0877 26.2684 55.018 26.4395C54.9484 26.6106 54.8461 26.7662 54.7168 26.8973C54.5875 27.0283 54.4339 27.1323 54.2647 27.2033C54.0956 27.2742 53.9142 27.3108 53.731 27.3108ZM53.731 25.3912C53.6301 25.3912 53.5315 25.4215 53.4477 25.4783C53.3638 25.535 53.2986 25.6156 53.2602 25.7099C53.2218 25.8042 53.2121 25.9079 53.2321 26.0078C53.2522 26.1076 53.3012 26.1993 53.373 26.2709C53.4447 26.3426 53.5359 26.3912 53.635 26.4104C53.7341 26.4296 53.8367 26.4187 53.9296 26.3789C54.0225 26.3392 54.1017 26.2725 54.157 26.1872C54.2122 26.1019 54.2412 26.002 54.2402 25.9001C54.2381 25.7648 54.1836 25.6358 54.0884 25.5407C53.9932 25.4456 53.8649 25.3919 53.731 25.3912Z" fill="#729AA8"/>
<path d="M58.1264 19.2315C57.8512 19.232 57.5821 19.1501 57.353 18.9961C57.1239 18.8422 56.9451 18.623 56.8393 18.3664C56.7335 18.1098 56.7054 17.8273 56.7586 17.5546C56.8118 17.2819 56.9438 17.0312 57.138 16.8343C57.3322 16.6374 57.5799 16.5031 57.8497 16.4484C58.1195 16.3936 58.3993 16.4209 58.6538 16.5268C58.9082 16.6326 59.1259 16.8123 59.2792 17.0431C59.4325 17.274 59.5146 17.5455 59.5152 17.8235C59.5155 18.008 59.4799 18.1908 59.4103 18.3615C59.3407 18.5321 59.2385 18.6872 59.1095 18.818C58.9806 18.9487 58.8274 19.0525 58.6587 19.1235C58.49 19.1944 58.3092 19.2311 58.1264 19.2315ZM58.1264 17.3119C58.0259 17.313 57.9279 17.3441 57.8448 17.4014C57.7617 17.4587 57.6973 17.5395 57.6597 17.6337C57.622 17.7279 57.6128 17.8313 57.6333 17.9307C57.6538 18.0302 57.7029 18.1213 57.7746 18.1926C57.8463 18.2638 57.9372 18.312 58.036 18.3312C58.1348 18.3503 58.237 18.3394 58.3297 18.2999C58.4223 18.2604 58.5013 18.1941 58.5567 18.1093C58.6121 18.0245 58.6414 17.925 58.6409 17.8235C58.6405 17.7557 58.6269 17.6887 58.6008 17.6262C58.5748 17.5638 58.5367 17.5072 58.4889 17.4597C58.4411 17.4121 58.3845 17.3746 58.3223 17.3493C58.2601 17.3239 58.1935 17.3112 58.1264 17.3119Z" fill="#729AA8"/>
<path d="M58.5876 30.2076H48.0029C38.9402 30.2076 34.7981 23.294 34.7981 16.8704C34.7981 8.39537 26.5351 5.23742 21.3427 5.23742H12.4053V11.591H11.523V4.36245H21.3427C24.7191 4.37836 28.0119 5.42472 30.7892 7.36426C33.0202 8.97958 35.6804 11.941 35.6804 16.8866C35.6804 22.8821 39.5346 29.3326 48.0029 29.3326H57.6626V24.107H58.5876V30.2076Z" fill="#729AA8"/>
<path d="M34.6515 5.87278C34.4596 6.10161 34.2756 6.33314 34.0971 6.57006C36.7109 9.26158 38.2705 12.8186 38.4871 16.5823V16.3912C38.4833 15.4574 38.6365 14.5298 38.9402 13.6479C38.2355 10.7112 36.753 8.0235 34.6515 5.87278Z" fill="white"/>
<path d="M58.1264 24.3305C57.8506 24.331 57.5808 24.2487 57.3513 24.094C57.1219 23.9393 56.9431 23.7192 56.8378 23.4617C56.7325 23.2042 56.7054 22.9208 56.7598 22.6477C56.8143 22.3745 56.948 22.1239 57.1438 21.9276C57.3396 21.7314 57.5888 21.5983 57.8596 21.5454C58.1304 21.4925 58.4108 21.5221 58.6649 21.6305C58.9191 21.7388 59.1356 21.921 59.287 22.154C59.4384 22.3869 59.5178 22.66 59.5152 22.9386C59.5116 23.3085 59.3639 23.6621 59.1039 23.9227C58.8439 24.1833 58.4927 24.3298 58.1264 24.3305ZM58.1264 22.4137C58.0264 22.4147 57.929 22.4455 57.8462 22.5022C57.7634 22.5589 57.699 22.6389 57.661 22.7324C57.623 22.8258 57.613 22.9285 57.6324 23.0275C57.6518 23.1266 57.6997 23.2178 57.77 23.2896C57.8404 23.3613 57.9301 23.4106 58.028 23.4312C58.1259 23.4518 58.2276 23.4429 58.3205 23.4054C58.4134 23.368 58.4933 23.3038 58.5503 23.2208C58.6073 23.1377 58.6388 23.0396 58.6409 22.9386C58.6427 22.8696 58.6306 22.801 58.6055 22.7368C58.5804 22.6727 58.5426 22.6143 58.4946 22.5653C58.4465 22.5162 58.3891 22.4775 58.3258 22.4515C58.2626 22.4254 58.1947 22.4125 58.1264 22.4137Z" fill="#729AA8"/>
<path d="M35.6804 16.9189C35.7333 13.9718 34.6293 11.1234 32.6097 8.99573C32.4711 9.26495 32.3432 9.5584 32.2126 9.84646C33.7692 11.6072 34.7981 13.9305 34.7981 16.9189C34.7886 19.3913 35.4081 21.8248 36.5973 23.9859C36.7705 23.6628 36.9305 23.329 37.0824 22.9925C36.1538 21.1056 35.6738 19.026 35.6804 16.9189Z" fill="white"/>
<path d="M34.918 26.5354C32.9348 23.9139 31.8327 20.721 31.7728 17.4223V17.0804C31.7648 15.9282 31.5311 14.7891 31.0851 13.7286C30.9509 14.5655 30.8814 15.4116 30.8771 16.2593C30.8771 16.3481 30.8771 16.437 30.8771 16.5285C30.8771 16.7143 30.9011 16.9027 30.9038 17.0912V17.4385C30.9651 20.994 32.1722 24.4324 34.3423 27.2327C34.5369 27.0039 34.7314 26.7723 34.918 26.5354Z" fill="white"/>
</svg>
