<svg width="80" height="83" viewBox="0 0 80 83" fill="none" xmlns="http://www.w3.org/2000/svg">
<path d="M39.8644 28.4846C46.4244 28.4846 52.1111 23.7792 53.3859 17.2967C53.5132 16.65 53.0965 16.0217 52.4554 15.8936C51.8141 15.7655 51.1915 16.1857 51.0644 16.8322C50.0087 22.2006 45.2984 26.097 39.8646 26.097C33.5676 26.097 28.4445 20.9292 28.4445 14.5773C28.4445 8.22538 33.5675 3.05768 39.8644 3.05768C45.1189 3.05768 49.6751 6.64532 50.9442 11.7821C51.1023 12.422 51.7452 12.811 52.3787 12.6518C53.013 12.4923 53.399 11.8445 53.2409 11.2048C51.7084 5.00223 46.2078 0.670166 39.8644 0.670166C32.2624 0.670166 26.0774 6.9089 26.0774 14.5773C26.0776 22.2458 32.2624 28.4846 39.8644 28.4846Z" fill="white"/>
<path d="M45.0905 10.5636L39.0122 16.695L34.6382 12.2827C34.1761 11.8167 33.4267 11.8167 32.9647 12.2827C32.5025 12.7491 32.5025 13.5048 32.9647 13.971L38.1754 19.2272C38.3973 19.451 38.6984 19.5767 39.0122 19.5767C39.326 19.5767 39.6271 19.451 39.849 19.2272L46.7642 12.2517C47.2263 11.7853 47.2263 11.0296 46.7642 10.5634C46.302 10.0975 45.5528 10.0975 45.0905 10.5636Z" fill="white"/>
<path d="M79.0179 33.3857L75.1577 29.4918C74.6954 29.0257 73.9462 29.0257 73.484 29.4918C73.0219 29.9581 73.0219 30.7139 73.484 31.1801L77.1183 34.8459L69.232 42.8009L54.5489 27.9897L62.4352 20.0347L69.5787 27.2407C70.041 27.7067 70.7902 27.7067 71.2524 27.2407C71.7146 26.7743 71.7146 26.0186 71.2524 25.5524L63.8825 18.1183C63.0842 17.3134 61.7854 17.3135 60.9871 18.1185L52.6488 26.5297C51.851 27.3347 51.851 28.6448 52.649 29.4502L53.3931 30.2009L50.8525 32.7636C49.0848 34.5469 46.4412 35.0973 44.1175 34.1659C40.915 32.8819 37.2711 33.6406 34.8345 36.0985L32.9058 38.0445L26.6005 31.6842L27.0796 31.2009C27.8774 30.3959 27.8774 29.0857 27.0794 28.2804L18.7413 19.8695C17.943 19.0642 16.6442 19.0645 15.8459 19.8695L0.711092 35.1365C0.324346 35.5265 0.111328 36.0452 0.111328 36.5969C0.111328 37.1485 0.324188 37.6671 0.710934 38.0574L9.04893 46.4678C9.43568 46.8581 9.94976 47.073 10.4968 47.073C11.0439 47.073 11.558 46.8581 11.9444 46.4681L12.275 46.1347L18.9524 52.8703C19.1996 53.1198 19.4261 53.3854 19.6334 53.6635L13.1567 60.1967C11.4635 61.9047 11.4635 64.6841 13.1567 66.3924C14.0034 67.2464 15.1155 67.6734 16.2276 67.6734C16.2706 67.6734 16.3133 67.6717 16.3562 67.6704C16.355 67.7142 16.3531 67.7579 16.3531 67.802C16.3531 68.9722 16.8048 70.0724 17.6252 70.8999C18.4456 71.7272 19.5362 72.1831 20.6963 72.1831C20.74 72.1831 20.7832 72.1812 20.8268 72.1799C20.7929 73.3446 21.2145 74.5205 22.0938 75.4074C22.914 76.2349 24.0047 76.6907 25.1648 76.6907C25.721 76.6907 26.2608 76.5849 26.7629 76.3847C26.9347 77.1733 27.3229 77.9233 27.9297 78.5357C28.7765 79.3896 29.8886 79.8166 31.0007 79.8166C32.1128 79.8166 33.2251 79.3896 34.0718 78.5355L35.0042 77.595L38.0942 80.7118C39.0226 81.6485 40.257 82.1642 41.5698 82.1642C42.8828 82.1642 44.1174 81.6485 45.0453 80.712C45.9738 79.7756 46.485 78.5304 46.4852 77.2061C46.4852 77.0778 46.4805 76.9503 46.4708 76.8238C47.8539 76.9303 49.2693 76.4513 50.3233 75.3883C51.3778 74.3244 51.852 72.8936 51.7461 71.4996C53.1282 71.6069 54.5464 71.1281 55.6011 70.0644C56.6548 69.0013 57.1293 67.5717 57.0242 66.1787C57.1784 66.1904 57.3343 66.1952 57.4908 66.192C58.8364 66.168 60.0836 65.6065 61.0024 64.6113C62.7841 62.6821 62.7003 59.5659 60.8156 57.6646L57.1381 53.9551L67.0403 43.9665L67.7843 44.717C68.1711 45.1072 68.6851 45.3221 69.2322 45.3221C69.7793 45.3221 70.2934 45.1073 70.6799 44.7173L79.0178 36.3065C79.4047 35.9164 79.6177 35.3979 79.6177 34.846C79.6177 34.2942 79.4045 33.7756 79.0179 33.3857ZM14.8304 64.7043C14.0599 63.9269 14.0599 62.6622 14.8304 61.885L22.153 54.4985C22.5275 54.1209 23.0217 53.9146 23.5493 53.9146C23.5643 53.9146 23.5793 53.9148 23.5944 53.9151C24.1385 53.9272 24.6415 54.1578 25.0108 54.5647C25.7133 55.3387 25.6538 56.6047 24.8785 57.3875L17.6254 64.7041C16.8547 65.4815 15.6007 65.4812 14.8304 64.7043ZM22.0932 69.2121C21.72 69.5882 21.2239 69.7954 20.6963 69.7954C20.1685 69.7954 19.6721 69.588 19.2989 69.2116C18.9256 68.835 18.7201 68.3343 18.7201 67.802C18.7201 67.2694 18.9257 66.769 19.2989 66.3926L27.4493 58.1711C27.8229 57.7942 28.3184 57.5873 28.8462 57.5873H28.8623C29.3959 57.5914 29.8946 57.8068 30.266 58.1935C31.0125 58.9706 31.0027 60.2253 30.2442 60.9903L22.094 69.2116C22.0935 69.2116 22.0934 69.2119 22.0932 69.2121ZM26.5623 73.7189C26.189 74.0955 25.6927 74.3029 25.1649 74.3029C24.6371 74.3029 24.1409 74.0955 23.7675 73.7189C23.3942 73.3425 23.1888 72.8417 23.1888 72.3095C23.1888 71.7769 23.3944 71.2763 23.7675 70.8999L30.4606 64.1485C30.834 63.7727 31.3289 63.5661 31.8559 63.5661C31.8611 63.5661 31.8665 63.5661 31.8718 63.5662C32.4056 63.5704 32.9041 63.7856 33.2756 64.1724C34.0221 64.9494 34.0124 66.2043 33.2539 66.9693L26.5623 73.7189ZM35.9618 73.2524L32.3982 76.847C31.6277 77.6244 30.3738 77.6243 29.6034 76.8472C28.8334 76.0703 28.8329 74.8068 29.602 74.0293L33.1678 70.4324C33.5452 70.0522 34.0471 69.8489 34.58 69.8492C35.1137 69.8534 35.6121 70.0687 35.9836 70.4555C36.7301 71.2324 36.7203 72.4871 35.9618 73.2524ZM59.1418 59.3531C60.1357 60.3557 60.1935 61.9844 59.2702 62.9842C58.7931 63.501 58.1461 63.7924 57.4485 63.805C56.7459 63.8128 56.0944 63.55 55.6009 63.0523C55.1386 62.5863 54.3894 62.5863 53.9272 63.0523C53.6962 63.2855 53.5807 63.5911 53.5807 63.8965C53.5807 64.2021 53.6962 64.5076 53.9272 64.7407C54.921 65.743 54.921 67.3739 53.9272 68.3761C52.9336 69.3787 51.3169 69.3787 50.3233 68.3761C49.861 67.9101 49.1118 67.9101 48.6496 68.3761C48.4186 68.6093 48.3031 68.9149 48.3031 69.2204C48.3031 69.5258 48.4186 69.8314 48.6496 70.0646C49.6434 71.0669 49.6434 72.6977 48.6496 73.7C47.6563 74.7024 46.0394 74.7027 45.0455 73.7001C44.5835 73.2341 43.8341 73.2341 43.372 73.7001C42.9098 74.1665 42.9098 74.9222 43.372 75.3883C43.8534 75.8739 44.1183 76.5193 44.1183 77.2061C44.1183 77.8926 43.8531 78.5382 43.3718 79.0238C42.8906 79.5094 42.2507 79.7767 41.5698 79.7767C40.8893 79.7767 40.2493 79.5093 39.7679 79.0237L36.6778 75.9067L37.6355 74.9407C39.3025 73.2591 39.324 70.5017 37.6833 68.794C37.1279 68.2157 36.4429 67.8125 35.6924 67.6105C36.544 65.9775 36.308 63.8979 34.9753 62.5106C34.3845 61.8958 33.6473 61.4796 32.8405 61.2921C33.4961 59.7184 33.2075 57.8244 31.9656 56.5315C31.1493 55.6819 30.0538 55.2088 28.8809 55.1996C28.8691 55.1996 28.8576 55.1996 28.8457 55.1996C28.5033 55.1996 28.1674 55.2402 27.8425 55.3174C27.7336 54.4599 27.3738 53.6323 26.7567 52.9525C25.9471 52.0605 24.8427 51.5547 23.6468 51.5282C22.853 51.5099 22.0905 51.7062 21.4199 52.089C21.1755 51.7724 20.911 51.4693 20.6264 51.182L13.949 44.4464L19.2763 39.0727C19.7385 38.6064 19.7385 37.8506 19.2763 37.3844C18.8143 36.9184 18.065 36.9184 17.6028 37.3844L10.4971 44.5519L2.6109 36.5969L17.2941 21.7857L25.1804 29.7407L21.508 33.445C21.0458 33.9114 21.0458 34.6671 21.508 35.1333C21.9701 35.5994 22.7195 35.5994 23.1815 35.1333L24.9273 33.3723L31.2326 39.7328L29.9433 41.0334C29.0149 41.9699 28.5036 43.2151 28.5036 44.5393C28.5036 45.8636 29.0149 47.1089 29.9433 48.0453C30.8718 48.9817 32.106 49.4974 33.419 49.4974C34.732 49.4974 35.9664 48.9817 36.8946 48.0453L40.3283 44.5817C41.2719 43.6299 42.7708 43.4694 43.8913 44.2001C43.893 44.2013 43.8949 44.2022 43.8966 44.2035L59.1418 59.3531ZM55.4645 52.2668L48.1134 44.8516C48.1278 44.8476 48.1423 44.8446 48.1567 44.8403L54.3015 43.0688C54.93 42.8877 55.2939 42.2269 55.1142 41.5931C54.9344 40.959 54.2793 40.5915 53.6513 40.7734L47.5063 42.545C46.7156 42.7729 45.8663 42.6454 45.1757 42.1951C43.1249 40.8579 40.382 41.151 38.6543 42.8935L35.2206 46.3573C34.7394 46.8428 34.0994 47.1101 33.4187 47.1101C32.738 47.1101 32.098 46.8427 31.6167 46.3572C30.6231 45.3549 30.6231 43.7241 31.6167 42.7218L36.5088 37.787C38.2767 36.0036 40.9204 35.4532 43.2438 36.3847C46.4464 37.6685 50.0901 36.91 52.5269 34.4521L55.0675 31.8893L65.3666 42.2782L55.4645 52.2668Z" fill="white"/>
</svg>
