<svg width="72" height="82" viewBox="0 0 72 82" fill="none" xmlns="http://www.w3.org/2000/svg">
<path d="M49.7706 34.2634C51.1036 32.9303 51.9309 31.0822 51.9309 29.042C51.9309 24.9897 48.6673 21.693 44.6558 21.693C41.5647 21.693 38.825 23.6729 37.802 26.5741C37.3732 26.4942 36.9321 26.4503 36.4807 26.4503C36.0293 26.4503 35.5884 26.4942 35.1595 26.5741C34.1365 23.6727 31.3966 21.693 28.3056 21.693C24.2942 21.693 21.0305 24.9897 21.0305 29.042C21.0305 31.0822 21.8581 32.9303 23.191 34.2634C19.9935 36.1037 17.935 39.5887 17.935 43.3788C17.935 44.0328 18.4597 44.5628 19.1069 44.5628C19.7541 44.5628 20.2788 44.0328 20.2788 43.3788C20.2788 40.0313 22.3531 36.9916 25.4447 35.7995C26.3234 36.1808 27.2905 36.3927 28.3058 36.3927C28.753 36.3927 29.1958 36.3491 29.6292 36.2682C29.9997 37.3151 30.5982 38.2529 31.3647 39.0202C28.1381 40.866 26.1104 44.3252 26.1104 48.1366C26.1104 48.7907 26.6351 49.3207 27.2823 49.3207C27.9295 49.3207 28.4542 48.7907 28.4542 48.1366C28.4542 44.8697 30.3786 41.9363 33.3568 40.6635C33.4365 40.6294 33.5101 40.5869 33.5779 40.5384C34.4677 40.9314 35.4492 41.1508 36.4807 41.1508C37.4964 41.1508 38.4636 40.9388 39.3423 40.5574C42.4325 41.7495 44.5072 44.7924 44.5072 48.1366C44.5072 48.7907 45.0319 49.3207 45.6791 49.3207C46.3263 49.3207 46.851 48.7907 46.851 48.1366C46.851 44.35 44.7921 40.8622 41.5955 39.0213C42.3627 38.2538 42.9616 37.3156 43.3322 36.2682C43.7658 36.3491 44.2085 36.3927 44.6557 36.3927C45.671 36.3927 46.638 36.1808 47.5166 35.7995C50.6082 36.9916 52.6825 40.031 52.6825 43.3788C52.6825 44.0328 53.2072 44.5628 53.8544 44.5628C54.5016 44.5628 55.0263 44.0328 55.0263 43.3788C55.0266 39.5885 52.9681 36.1037 49.7706 34.2634ZM29.2063 33.8007C29.2063 33.8472 29.2089 33.893 29.2097 33.9393C28.9145 33.9949 28.6122 34.0245 28.3058 34.0245C25.5867 34.0245 23.3745 31.7895 23.3745 29.042C23.3745 26.2956 25.5867 24.0611 28.3058 24.0611C30.4036 24.0611 32.2619 25.406 32.9535 27.3753C30.7207 28.6317 29.2063 31.0404 29.2063 33.8007ZM31.55 33.8007C31.55 31.0537 33.7619 28.8186 36.4809 28.8186C39.1998 28.8186 41.4117 31.0535 41.4117 33.8007C41.4117 36.5478 39.1998 38.7827 36.4809 38.7827C33.7619 38.7827 31.55 36.5477 31.55 33.8007ZM43.7519 33.9393C43.7527 33.893 43.7553 33.8471 43.7553 33.8007C43.7553 31.0404 42.241 28.6319 40.0081 27.3755C40.6997 25.4062 42.558 24.0612 44.6558 24.0612C47.3749 24.0612 49.5871 26.2956 49.5871 29.0422C49.5871 31.7895 47.3749 34.0247 44.6558 34.0247C44.3494 34.0245 44.0471 33.9949 43.7519 33.9393Z" fill="white"/>
<path d="M66.8297 51.6815V30.159C69.7508 29.602 71.9677 27.0059 71.9677 23.895C71.9677 20.3791 69.1369 17.5189 65.6572 17.5189C63.7448 17.5189 62.0296 18.3841 60.8715 19.7459L42.4358 8.99067C42.665 8.33092 42.7913 7.62238 42.7913 6.88431C42.7913 3.36876 39.9605 0.508545 36.4809 0.508545C33.0013 0.508545 30.1703 3.36876 30.1703 6.88447C30.1703 7.62253 30.2964 8.33092 30.5258 8.99083L12.0901 19.7459C10.932 18.3841 9.21681 17.5189 7.30444 17.5189C3.82471 17.5189 0.993896 20.3791 0.993896 23.895C0.993896 27.0059 3.2108 29.6018 6.13193 30.159V51.6815C3.2108 52.2385 0.993896 54.8346 0.993896 57.9455C0.993896 61.4614 3.82471 64.3216 7.30444 64.3216C9.21384 64.3216 10.9265 63.4592 12.0847 62.1011L30.5257 72.8582C30.2964 73.5178 30.1703 74.2262 30.1703 74.9639C30.1703 78.4798 33.0012 81.34 36.4809 81.34C39.9606 81.34 42.7914 78.4798 42.7914 74.9639C42.7914 74.2262 42.6653 73.5178 42.4361 72.8582L60.8771 62.1011C62.0353 63.4593 63.7479 64.3216 65.6573 64.3216C69.1371 64.3216 71.9679 61.4614 71.9679 57.9455C71.9677 54.8345 69.7507 52.2385 66.8297 51.6815ZM65.6572 19.887C67.8444 19.887 69.6239 21.6851 69.6239 23.895C69.6239 26.1049 67.8444 27.9029 65.6572 27.9029C63.47 27.9029 61.6904 26.1049 61.6904 23.895C61.6904 21.6851 63.47 19.887 65.6572 19.887ZM36.4809 2.87666C38.6681 2.87666 40.4477 4.67454 40.4477 6.88447C40.4477 9.09235 38.6714 10.889 36.487 10.8923C36.4849 10.8923 36.4829 10.892 36.4809 10.892C36.4789 10.892 36.4768 10.8923 36.4748 10.8923C34.2904 10.889 32.5141 9.09235 32.5141 6.88447C32.5141 4.67454 34.2935 2.87666 36.4809 2.87666ZM3.33767 23.895C3.33767 21.6851 5.11723 19.887 7.30444 19.887C9.49166 19.887 11.2712 21.6851 11.2712 23.895C11.2712 26.1049 9.49166 27.9029 7.30444 27.9029C5.11723 27.9029 3.33767 26.1049 3.33767 23.895ZM7.30444 61.9533C5.11723 61.9533 3.33767 60.1553 3.33767 57.9454C3.33767 55.7355 5.11723 53.9374 7.30444 53.9374C9.49166 53.9374 11.2712 55.7355 11.2712 57.9454C11.2712 60.1553 9.49166 61.9533 7.30444 61.9533ZM36.4809 78.9718C34.2937 78.9718 32.5141 77.1737 32.5141 74.9638C32.5141 72.7539 34.2937 70.9558 36.4809 70.9558C38.6681 70.9558 40.4477 72.7539 40.4477 74.9638C40.4477 77.1737 38.6681 78.9718 36.4809 78.9718ZM41.2614 70.8088C40.3462 69.7353 39.0845 68.9726 37.6526 68.6998V64.1382C37.6526 63.4841 37.1279 62.9541 36.4807 62.9541C35.8335 62.9541 35.3088 63.4841 35.3088 64.1382V68.6998C33.8771 68.9728 32.6154 69.7353 31.7 70.8088L13.2594 60.0519C13.4887 59.392 13.6148 58.6836 13.6148 57.9455C13.6148 57.2068 13.4884 56.4977 13.2587 55.8373L17.1697 53.5552C17.7302 53.2281 17.9221 52.5039 17.5985 51.9376C17.2749 51.3713 16.5581 51.1776 15.9975 51.5044L12.0831 53.7885C11.1679 52.7159 9.90666 51.954 8.47555 51.6814V30.1591C9.90713 29.8865 11.1687 29.1241 12.0839 28.051L16.0036 30.3382C16.1881 30.4458 16.3897 30.497 16.5886 30.497C16.9935 30.497 17.3874 30.2846 17.6044 29.905C17.9282 29.3387 17.7361 28.6143 17.1757 28.2874L13.2589 26.002C13.4883 25.3419 13.6145 24.6332 13.6145 23.895C13.6145 23.1599 13.4894 22.4542 13.2617 21.7967L31.7 11.0399C32.6152 12.1131 33.8768 12.8757 35.3084 13.1485V17.7106C35.3084 18.3646 35.8331 18.8946 36.4803 18.8946C37.1275 18.8946 37.6521 18.3646 37.6521 17.7106V13.1485C39.0837 12.8757 40.3453 12.1131 41.2605 11.0399L59.6988 21.7967C59.4713 22.4542 59.346 23.1599 59.346 23.895C59.346 24.6332 59.4723 25.3419 59.7016 26.002L55.7849 28.2874C55.2244 28.6143 55.0324 29.3387 55.3561 29.905C55.5732 30.2846 55.9671 30.497 56.3719 30.497C56.5707 30.497 56.7724 30.4458 56.9569 30.3382L60.8766 28.051C61.792 29.1241 63.0535 29.8865 64.485 30.1591V51.6814C63.0539 51.954 61.7928 52.7159 60.8774 53.7885L56.963 51.5044C56.4025 51.1779 55.6858 51.3713 55.3621 51.9376C55.0383 52.5039 55.2303 53.2281 55.7908 53.5552L59.7018 55.8373C59.4721 56.4977 59.3457 57.2068 59.3457 57.9455C59.3457 58.6836 59.4718 59.3921 59.7012 60.0519L41.2614 70.8088ZM65.6572 61.9533C63.47 61.9533 61.6904 60.1553 61.6904 57.9454C61.6904 55.7355 63.47 53.9374 65.6572 53.9374C67.8444 53.9374 69.6239 55.7355 69.6239 57.9454C69.6239 60.1553 67.8444 61.9533 65.6572 61.9533Z" fill="white"/>
<path d="M46.2963 53.1581H42.8088C42.1616 53.1581 41.6369 53.6881 41.6369 54.3422C41.6369 54.9963 42.1616 55.5263 42.8088 55.5263H46.2963C46.9435 55.5263 47.4682 54.9963 47.4682 54.3422C47.4682 53.6881 46.9435 53.1581 46.2963 53.1581Z" fill="white"/>
<path d="M46.2962 57.7957H26.6653C26.0181 57.7957 25.4934 58.3257 25.4934 58.9798C25.4934 59.6338 26.0181 60.1638 26.6653 60.1638H46.2963C46.9435 60.1638 47.4682 59.6338 47.4682 58.9798C47.4682 58.3257 46.9434 57.7957 46.2962 57.7957Z" fill="white"/>
<path d="M26.6653 55.5263H26.6815C27.3287 55.5263 27.8534 54.9963 27.8534 54.3422C27.8534 53.6881 27.3287 53.1581 26.6815 53.1581H26.6653C26.0181 53.1581 25.4934 53.6881 25.4934 54.3422C25.4934 54.9963 26.0181 55.5263 26.6653 55.5263Z" fill="white"/>
<path d="M30.7407 55.5263C31.3878 55.5263 31.9125 54.9963 31.9125 54.3422C31.9125 53.6881 31.3878 53.1581 30.7407 53.1581H30.7244C30.0772 53.1581 29.5525 53.6881 29.5525 54.3422C29.5525 54.9963 30.0772 55.5263 30.7244 55.5263H30.7407Z" fill="white"/>
<path d="M34.7998 55.5263C35.447 55.5263 35.9716 54.9963 35.9716 54.3422C35.9716 53.6881 35.447 53.1581 34.7998 53.1581H34.7835C34.1363 53.1581 33.6116 53.6881 33.6116 54.3422C33.6116 54.9963 34.1363 55.5263 34.7835 55.5263H34.7998Z" fill="white"/>
</svg>
